5.3 综合运用 | 商业数据分析师-R 语言数据处理
…
y_to_y(dt,date = '20201001',n = 1,area,类型,category) %>% 
  tidyr::pivot_wider(id_cols = c('area','category'),names_from = '类型',values_from = '金额') %>% 
  mutate(增长率 = 当前 / 同期)
#> `summarise()` has grouped output by 'area', '类型'. You can override using the `.groups` argument.
#> # A tibble: 16 x 5
#>   area  category  当前  同期 增长率
#>   <chr> <chr>    <int> <int>  <dbl>
#> 1 华北  品类A     1515  1268  1.19 
#> 2 华北  品类B     1807  2600  0.695
#> 3 华北  品类C     1956  1837  1.06 
#> 4 华北  品类D     2294  1969  1.17 
#> 5 华东  品类A     1797  2400  0.749
#> 6 华东  品类B     2507  2064  1.21 
#> # ... with 10 more rows
…
