2.1 前言 | R语言学习笔记
…
透视表截图

R实现：

library(tidyverse,warn.conflicts = FALSE)
data <- readr::read_csv("./data/flights.csv")

data %>% 
  filter(year==2014,month==6) %>% 
  group_by(origin,dest) %>% 
  summarise(distance求和项 = sum(distance))
#> # A tibble: 195 x 3
#> # Groups:   origin [3]
#>   origin dest  distance求和项
#>   <chr>  <chr>          <dbl>
#> 1 EWR    ALB              715
#> 2 EWR    ANC            13480
#> 3 EWR    ATL           317050
#> 4 EWR    AUS            88736
#> 5 EWR    AVL            13409
#> 6 EWR    BDL             8236
#> # ... with 189 more rows
…
