2.5 分组操作 | 商业数据分析师-R 语言数据处理
…
2.5 分组操作

group_by()是最重要的分组动词,需要一个数据框和一个或多个变量进行分组：

详情: https://cloud.r-project.org/web/packages/dplyr/vignettes/grouping.html

2.5.1 添加分组

by_species <- starwars %>% group_by(species)
by_sex_gender <- starwars %>% group_by(sex, gender)

在添加分组后，print()打印时可以看到分组:

by_species
#> # A tibble: 87 x 14
#> # Groups:   species [38]
#>   name     height  mass hair_color  skin_color eye_color birth_year sex   gender
#>   <chr>     <int> <dbl> <chr>       <chr>      <chr>          <dbl> <chr> <chr> 
#> 1 Luke Sk~    172    77 blond       fair       blue            19   male  mascu~
#> 2 C-3PO       167    75 <NA>        gold       yellow         112   none  mascu~
#> 3 R2-D2        96    32 <NA>        white, bl~ red             33   none  mascu~
#> 4 Darth V~    202   136 none        white      yellow          41.9 male  mascu~
#> 5 Leia Or~    150    49 brown       light      brown           19   fema~ femin~
#> 6 Owen La~    178   120 brown, grey light      blue            52   male  mascu~
#> # ... with 81 more rows, and 5 more variables: homeworld <chr>, species <chr>,
#> #   films <list>, vehicles <list>, starships <list>

计算每个分组的行数，可以通过sort参数控制排序方式。

by_species %>% tally()
#> # A tibble: 38 x 2
#>   species      n
#>   <chr>    <int>
#> 1 Aleena       1
#> 2 Besalisk     1
#> 3 Cerean       1
#> 4 Chagrian     1
#> 5 Clawdite     1
#> 6 Droid        6
#> # ... with 32 more rows
…
group_by()可通过在group_by()计算产生的新字段分组

2.5.2 查看分组

使用group_keys()查看数据的分组，每个组一行，每个分组变量占一列：

by_species %>% group_keys()
#> # A tibble: 38 x 1
#>   species 
#>   <chr>   
#> 1 Aleena  
#> 2 Besalisk
#> 3 Cerean  
#> 4 Chagrian
#> 5 Clawdite
#> 6 Droid   
#> # ... with 32 more rows
…
by_species %>% group_indices()
#>  [1] 11  6  6 11 11 11 11  6 11 11 11 11 34 11 24 12 11 11 36 11 11  6 31 11 11
#> [26] 18 11 11  8 26 11 21 11 10 10 10 38 30  7 38 11 37 32 32 33 35 29 11  3 20
#> [51] 37 27 13 23 16  4 11 11 11  9 17 17 11 11 11 11  5  2 15 15 11  1  6 25 19
#> [76] 28 14 34 11 38 22 11 11 11  6 38 11

该特性方便增加组别列。

df <- tibble(a = c('a','a','a','b','b','b','d','e','f'))
df %>% 
  group_by(a) %>%
  mutate(组别列 = group_indices() )
#> Warning: `group_indices()` was deprecated in dplyr 1.0.0.
#> Please use `cur_group_id()` instead.
#> # A tibble: 9 x 2
#> # Groups:   a [5]
#>   a     组别列
#>   <chr>  <int>
#> 1 a          1
#> 2 a          1
#> 3 a          1
#> 4 b          2
#> 5 b          2
#> 6 b          2
#> # ... with 3 more rows

上述用法在dplyr 1.0.0 中弃用，用cur_group_id()代替，如下所示：

df %>% 
  group_by(a) %>%
  mutate(组别列 = cur_group_id())
#> # A tibble: 9 x 2
#> # Groups:   a [5]
#>   a     组别列
#>   <chr>  <int>
#> 1 a          1
#> 2 a          1
#> 3 a          1
#> 4 b          2
#> 5 b          2
#> 6 b          2
#> # ... with 3 more rows
…
by_species %>% group_vars()
#> [1] "species"

by_sex_gender %>% group_vars()
#> [1] "sex"    "gender"

2.5.3 更改和添加分组变量

如果将group_by()应用已经分组的数据集，将覆盖现有的分组变量。例如，下面的分组变量是homeworld而不是之前的species。

 by_species %>% 
  group_by(homeworld) %>% 
  tally()
#> # A tibble: 49 x 2
#>   homeworld          n
#>   <chr>          <int>
#> 1 Alderaan           3
#> 2 Aleen Minor        1
#> 3 Bespin             1
#> 4 Bestine IV         1
#> 5 Cato Neimoidia     1
#> 6 Cerea              1
#> # ... with 43 more rows

要增加分组变量，使用.add=TRUE参数即可。例如：

by_species %>% 
  group_by(homeworld,.add = TRUE) %>% 
  tally()
#> # A tibble: 58 x 3
#> # Groups:   species [38]
#>   species  homeworld       n
#>   <chr>    <chr>       <int>
#> 1 Aleena   Aleen Minor     1
#> 2 Besalisk Ojom            1
#> 3 Cerean   Cerea           1
#> 4 Chagrian Champala        1
#> 5 Clawdite Zolan           1
#> 6 Droid    Naboo           1
#> # ... with 52 more rows
…
2.5.5 动词影响

group_by()是如何影响 dplyr 的主要动词。

summarise

summarise() 计算每个组的汇总，表示从group_keys()开始,在右侧添加summarise()的汇总变量。

by_species %>%
  summarise(
    n = n(),
    height = mean(height, na.rm = TRUE)
  )
#> # A tibble: 38 x 3
#>   species      n height
#>   <chr>    <int>  <dbl>
#> 1 Aleena       1    79 
#> 2 Besalisk     1   198 
#> 3 Cerean       1   198 
#> 4 Chagrian     1   196 
#> 5 Clawdite     1   168 
#> 6 Droid        6   131.
#> # ... with 32 more rows
…
以上,可以看到保留分组信息的比没保留的对象大了两倍多，在实际使用中，当数据较大时会占据更多内存，所以我们需要根据实际情况决定是否保留分组信息，我在大部分时候都会删除分组信息。

arrange

默认情况下，分组和不分组的数据集应用在在arrange()效果相同。除非设置.by_group = TRUE,这时首先按照分组变量排序。

df <- tibble(a = c('a','b','a','a','d','b','b','b','d','e','f'),b=1:11) %>% 
  group_by(a)

df %>% 
  arrange(desc(b)) 
#> # A tibble: 11 x 2
#> # Groups:   a [5]
#>   a         b
#>   <chr> <int>
#> 1 f        11
#> 2 e        10
#> 3 d         9
#> 4 b         8
#> 5 b         7
#> 6 b         6
#> # ... with 5 more rows
df %>% 
  arrange(desc(b),.by_group = TRUE)
#> # A tibble: 11 x 2
#> # Groups:   a [5]
#>   a         b
#>   <chr> <int>
#> 1 a         4
#> 2 a         3
#> 3 a         1
#> 4 b         8
#> 5 b         7
#> 6 b         6
#> # ... with 5 more rows
…
想想以下代码的含义？

df %>% 
  group_by(a) %>% 
  filter(n()!=1)
#> # A tibble: 9 x 2
#> # Groups:   a [3]
#>   a         b
#>   <chr> <int>
#> 1 a         1
#> 2 b         2
#> 3 a         3
#> 4 a         4
#> 5 d         5
#> 6 b         6
#> # ... with 3 more rows

删除只有一行记录的数据行

slice 系列

选择每个分组变量的第一个观测值。

by_species %>% 
  relocate(species) %>% 
  slice(1)
#> # A tibble: 38 x 14
#> # Groups:   species [38]
#>   species  name   height  mass hair_color skin_color  eye_color birth_year sex  
#>   <chr>    <chr>   <int> <dbl> <chr>      <chr>       <chr>          <dbl> <chr>
#> 1 Aleena   Ratts~     79    15 none       grey, blue  unknown           NA male 
#> 2 Besalisk Dexte~    198   102 none       brown       yellow            NA male 
#> 3 Cerean   Ki-Ad~    198    82 white      pale        yellow            92 male 
#> 4 Chagrian Mas A~    196    NA none       blue        blue              NA male 
#> 5 Clawdite Zam W~    168    55 blonde     fair, gree~ yellow            NA fema~
#> 6 Droid    C-3PO     167    75 <NA>       gold        yellow           112 none 
#> # ... with 32 more rows, and 5 more variables: gender <chr>, homeworld <chr>,
#> #   films <list>, vehicles <list>, starships <list>

同样，我同样可以使用slice_min()来选择 变量的最大值。

by_species %>% 
  filter(!is.na(height)) %>% 
  slice_max(height,n=3)
#> # A tibble: 51 x 14
#> # Groups:   species [38]
#>   name    height  mass hair_color skin_color   eye_color birth_year sex   gender
#>   <chr>    <int> <dbl> <chr>      <chr>        <chr>          <dbl> <chr> <chr> 
#> 1 Ratts ~     79    15 none       grey, blue   unknown           NA male  mascu~
#> 2 Dexter~    198   102 none       brown        yellow            NA male  mascu~
#> 3 Ki-Adi~    198    82 white      pale         yellow            92 male  mascu~
#> 4 Mas Am~    196    NA none       blue         blue              NA male  mascu~
#> 5 Zam We~    168    55 blonde     fair, green~ yellow            NA fema~ femin~
#> 6 IG-88      200   140 none       metal        red               15 none  mascu~
#> # ... with 45 more rows, and 5 more variables: homeworld <chr>, species <chr>,
#> #   films <list>, vehicles <list>, starships <list>
