2.3 表关联 | R语言学习笔记
…
基础用法

left_join(),right_join(),full_join(),inner_join()，第一个以左表为主，第二个右表为主，第三个全连接，第四个内连接(只返回两表中都有的记录)，和数据库中连接方式一致。

默认会自动寻找两表中相同的字段名作为关联的条件

library("nycflights13")
# Drop unimportant variables so it's easier to understand the join results.
flights2 <- flights %>% select(year:day, hour, origin, dest, tailnum, carrier)

flights2 %>% 
  left_join(airlines)
#> Joining, by = "carrier"
#> # A tibble: 336,776 x 9
#>    year month   day  hour origin dest  tailnum carrier name                  
#>   <int> <int> <int> <dbl> <chr>  <chr> <chr>   <chr>   <chr>                 
#> 1  2013     1     1     5 EWR    IAH   N14228  UA      United Air Lines Inc. 
#> 2  2013     1     1     5 LGA    IAH   N24211  UA      United Air Lines Inc. 
#> 3  2013     1     1     5 JFK    MIA   N619AA  AA      American Airlines Inc.
#> 4  2013     1     1     5 JFK    BQN   N804JB  B6      JetBlue Airways       
#> 5  2013     1     1     6 LGA    ATL   N668DN  DL      Delta Air Lines Inc.  
#> 6  2013     1     1     5 EWR    ORD   N39463  UA      United Air Lines Inc. 
#> # ... with 336,770 more rows

指定关联条件列，类似数据库中on a.column = b.column。

R实现

flights2 %>% left_join(planes, by = "tailnum")
#> # A tibble: 336,776 x 16
#>   year.x month   day  hour origin dest  tailnum carrier year.y type             
#>    <int> <int> <int> <dbl> <chr>  <chr> <chr>   <chr>    <int> <chr>            
#> 1   2013     1     1     5 EWR    IAH   N14228  UA        1999 Fixed wing multi~
#> 2   2013     1     1     5 LGA    IAH   N24211  UA        1998 Fixed wing multi~
#> 3   2013     1     1     5 JFK    MIA   N619AA  AA        1990 Fixed wing multi~
#> 4   2013     1     1     5 JFK    BQN   N804JB  B6        2012 Fixed wing multi~
#> 5   2013     1     1     6 LGA    ATL   N668DN  DL        1991 Fixed wing multi~
#> 6   2013     1     1     5 EWR    ORD   N39463  UA        2012 Fixed wing multi~
#> # ... with 336,770 more rows, and 6 more variables: manufacturer <chr>,
#> #   model <chr>, engines <int>, seats <int>, speed <int>, engine <chr>

Sql实现

select * from flights2 a left join planes b on a.tailnum = b.tailnum 

不同名称列关联

left_join(x,y,by = c("a" = "b", "c" = "d")) 将会匹配 x$a to y$b 和 x$c to y$d 作为关联条件

#出发机场和目的机场信息
flights2 %>% left_join(airports, by = c("dest" = "faa"))
#> # A tibble: 336,776 x 15
#>    year month   day  hour origin dest  tailnum carrier name      lat   lon   alt
#>   <int> <int> <int> <dbl> <chr>  <chr> <chr>   <chr>   <chr>   <dbl> <dbl> <dbl>
#> 1  2013     1     1     5 EWR    IAH   N14228  UA      George~  30.0 -95.3    97
#> 2  2013     1     1     5 LGA    IAH   N24211  UA      George~  30.0 -95.3    97
#> 3  2013     1     1     5 JFK    MIA   N619AA  AA      Miami ~  25.8 -80.3     8
#> 4  2013     1     1     5 JFK    BQN   N804JB  B6      <NA>     NA    NA      NA
#> 5  2013     1     1     6 LGA    ATL   N668DN  DL      Hartsf~  33.6 -84.4  1026
#> 6  2013     1     1     5 EWR    ORD   N39463  UA      Chicag~  42.0 -87.9   668
#> # ... with 336,770 more rows, and 3 more variables: tz <dbl>, dst <chr>,
#> #   tzone <chr>
#flights2 %>% left_join(airports, c("origin" = "faa"))
# 组合条件 多条件时用向量包裹即可c("dest" = "faa","cola" = "colb"))

筛选连接

anti_join() 删除所有左表中在右表中匹配到的行

semi_join()保留所有左表在右表中匹配到的行

df1 <- tibble(a=letters[1:20],b=1:20)
df2 <- tibble(a=letters,b=1:26)

df1 %>% semi_join(df2)
#> Joining, by = c("a", "b")
#> # A tibble: 20 x 2
#>   a         b
#>   <chr> <int>
#> 1 a         1
#> 2 b         2
#> 3 c         3
#> 4 d         4
#> 5 e         5
#> 6 f         6
#> # ... with 14 more rows
…
