2.3 常用函数 | 商业数据分析师-R 语言数据处理
…
pull()功能与　data$．类似，为了在管道中使用设计

2.3.3 计数函数

计数

count()函数用来计数。下面两种表达方式等价。

df %>% count(a, b)
# same above
df %>% group_by(a, b) %>% summarise(n = n())

starwars %>% count(species)
#> # A tibble: 38 x 2
#>   species      n
#>   <chr>    <int>
#> 1 Aleena       1
#> 2 Besalisk     1
#> 3 Cerean       1
#> 4 Chagrian     1
#> 5 Clawdite     1
#> 6 Droid        6
#> # ... with 32 more rows
# same above 等价
starwars %>% group_by(species) %>% summarise(n = n())
#> # A tibble: 38 x 2
#>   species      n
#>   <chr>    <int>
#> 1 Aleena       1
#> 2 Besalisk     1
#> 3 Cerean       1
#> 4 Chagrian     1
#> 5 Clawdite     1
#> 6 Droid        6
#> # ... with 32 more rows
…
# 筛选最后一行
mtcars %>% slice(n())
#> # A tibble: 1 x 11
#>     mpg   cyl  disp    hp  drat    wt  qsec    vs    am  gear  carb
#>   <dbl> <int> <dbl> <int> <dbl> <dbl> <dbl> <int> <int> <int> <int>
#> 1  21.4     4   121   109  4.11  2.78  18.6     1     1     4     2

# 筛选5至最后一行
mtcars %>% slice(5:n())
#> # A tibble: 28 x 11
#>     mpg   cyl  disp    hp  drat    wt  qsec    vs    am  gear  carb
#>   <dbl> <int> <dbl> <int> <dbl> <dbl> <dbl> <int> <int> <int> <int>
#> 1  18.7     8  360    175  3.15  3.44  17.0     0     0     3     2
#> 2  18.1     6  225    105  2.76  3.46  20.2     1     0     3     1
#> 3  14.3     8  360    245  3.21  3.57  15.8     0     0     3     4
#> 4  24.4     4  147.    62  3.69  3.19  20       1     0     4     2
#> 5  22.8     4  141.    95  3.92  3.15  22.9     1     0     4     2
#> 6  19.2     6  168.   123  3.92  3.44  18.3     1     0     4     4
#> # ... with 22 more rows

# 删除前面四行
slice(mtcars, -(1:4))
#> # A tibble: 28 x 11
#>     mpg   cyl  disp    hp  drat    wt  qsec    vs    am  gear  carb
#>   <dbl> <int> <dbl> <int> <dbl> <dbl> <dbl> <int> <int> <int> <int>
#> 1  18.7     8  360    175  3.15  3.44  17.0     0     0     3     2
#> 2  18.1     6  225    105  2.76  3.46  20.2     1     0     3     1
#> 3  14.3     8  360    245  3.21  3.57  15.8     0     0     3     4
#> 4  24.4     4  147.    62  3.69  3.19  20       1     0     4     2
#> 5  22.8     4  141.    95  3.92  3.15  22.9     1     0     4     2
#> 6  19.2     6  168.   123  3.92  3.44  18.3     1     0     4     4
#> # ... with 22 more rows
…
# slice_min()可能返回更多行，通过with_ties参数控制
mtcars %>% slice_min(cyl, n = 1)
#> # A tibble: 11 x 11
#>     mpg   cyl  disp    hp  drat    wt  qsec    vs    am  gear  carb
#>   <dbl> <int> <dbl> <int> <dbl> <dbl> <dbl> <int> <int> <int> <int>
#> 1  22.8     4 108      93  3.85  2.32  18.6     1     1     4     1
#> 2  24.4     4 147.     62  3.69  3.19  20       1     0     4     2
#> 3  22.8     4 141.     95  3.92  3.15  22.9     1     0     4     2
#> 4  32.4     4  78.7    66  4.08  2.2   19.5     1     1     4     1
#> 5  30.4     4  75.7    52  4.93  1.62  18.5     1     1     4     2
#> 6  33.9     4  71.1    65  4.22  1.84  19.9     1     1     4     1
#> # ... with 5 more rows
…
2.3.7 group 系列

group 系列函数包含　group_by(),group_map(), group_nest(), group_split(), group_trim()等。
其中我常用group_by(),group_split()两个函数。group_by()是我们熟悉的动词，大部分数据操作中的分组操作由它完成。

group_by()

#group_by()不会改变数据框
by_cyl <- mtcars %>% group_by(cyl)
by_cyl
#> # A tibble: 32 x 11
#> # Groups:   cyl [3]
#>     mpg   cyl  disp    hp  drat    wt  qsec    vs    am  gear  carb
#>   <dbl> <int> <dbl> <int> <dbl> <dbl> <dbl> <int> <int> <int> <int>
#> 1  21       6   160   110  3.9   2.62  16.5     0     1     4     4
#> 2  21       6   160   110  3.9   2.88  17.0     0     1     4     4
#> 3  22.8     4   108    93  3.85  2.32  18.6     1     1     4     1
#> 4  21.4     6   258   110  3.08  3.22  19.4     1     0     3     1
#> 5  18.7     8   360   175  3.15  3.44  17.0     0     0     3     2
#> 6  18.1     6   225   105  2.76  3.46  20.2     1     0     3     1
#> # ... with 26 more rows
…
ir <- iris %>%
  group_by(Species)

group_split(ir)
#> <list_of<
#>   tbl_df<
#>     Sepal.Length: double
#>     Sepal.Width : double
#>     Petal.Length: double
#>     Petal.Width : double
#>     Species     : factor<fb977>
#>   >
#> >[3]>
#> [[1]]
#> # A tibble: 50 x 5
#>   Sepal.Length Sepal.Width Petal.Length Petal.Width Species
#>          <dbl>       <dbl>        <dbl>       <dbl> <fct>  
#> 1          5.1         3.5          1.4         0.2 setosa 
#> 2          4.9         3            1.4         0.2 setosa 
#> 3          4.7         3.2          1.3         0.2 setosa 
#> 4          4.6         3.1          1.5         0.2 setosa 
#> 5          5           3.6          1.4         0.2 setosa 
#> 6          5.4         3.9          1.7         0.4 setosa 
#> # ... with 44 more rows
#> 
#> [[2]]
#> # A tibble: 50 x 5
#>   Sepal.Length Sepal.Width Petal.Length Petal.Width Species   
#>          <dbl>       <dbl>        <dbl>       <dbl> <fct>     
#> 1          7           3.2          4.7         1.4 versicolor
#> 2          6.4         3.2          4.5         1.5 versicolor
#> 3          6.9         3.1          4.9         1.5 versicolor
#> 4          5.5         2.3          4           1.3 versicolor
#> 5          6.5         2.8          4.6         1.5 versicolor
#> 6          5.7         2.8          4.5         1.3 versicolor
#> # ... with 44 more rows
#> 
#> [[3]]
#> # A tibble: 50 x 5
#>   Sepal.Length Sepal.Width Petal.Length Petal.Width Species  
#>          <dbl>       <dbl>        <dbl>       <dbl> <fct>    
#> 1          6.3         3.3          6           2.5 virginica
#> 2          5.8         2.7          5.1         1.9 virginica
#> 3          7.1         3            5.9         2.1 virginica
#> 4          6.3         2.9          5.6         1.8 virginica
#> 5          6.5         3            5.8         2.2 virginica
#> 6          7.6         3            6.6         2.1 virginica
#> # ... with 44 more rows
…
iris %>%
  group_by(Species) %>%
  group_modify(~ {
    .x %>%
      purrr::map_dfc(fivenum) %>%
      mutate(nms = c("min", "Q1", "median", "Q3", "max"))
  })
#> # A tibble: 15 x 6
#> # Groups:   Species [3]
#>   Species    Sepal.Length Sepal.Width Petal.Length Petal.Width nms   
#>   <fct>             <dbl>       <dbl>        <dbl>       <dbl> <chr> 
#> 1 setosa              4.3         2.3          1           0.1 min   
#> 2 setosa              4.8         3.2          1.4         0.2 Q1    
#> 3 setosa              5           3.4          1.5         0.2 median
#> 4 setosa              5.2         3.7          1.6         0.3 Q3    
#> 5 setosa              5.8         4.4          1.9         0.6 max   
#> 6 versicolor          4.9         2            3           1   min   
#> # ... with 9 more rows
…
# group_walk
dir.create(temp <- tempfile())
iris %>%
  group_by(Species) %>%
  group_walk(~ write.csv(.x, file = file.path(temp, paste0(.y$Species, ".csv"))))
list.files(temp, pattern = "csv$")
unlink(temp, recursive = TRUE)

group_cols()

选择分组变量

gdf <- iris %>% group_by(Species)
gdf %>% select(group_cols())
#> # A tibble: 150 x 1
#> # Groups:   Species [3]
#>   Species
#>   <fct>  
#> 1 setosa 
#> 2 setosa 
#> 3 setosa 
#> 4 setosa 
#> 5 setosa 
#> 6 setosa 
#> # ... with 144 more rows
…
x <- sample(c(1:5, NA, NA, NA))
coalesce(x, 0L)
#> [1] 3 2 0 5 4 0 1 0

y <- c(1, 2, NA, NA, 5)
z <- c(NA, NA, 3, 4, 5)
coalesce(y, z)
#> [1] 1 2 3 4 5

在数据框中替换NA

df <- tibble( a= sample(c(1:3,NA,NA),10,replace = TRUE))
df %>% 
  mutate(a = coalesce(a,0))
#> # A tibble: 10 x 1
#>       a
#>   <dbl>
#> 1     1
#> 2     0
#> 3     3
#> 4     2
#> 5     2
#> 6     0
#> # ... with 4 more rows
