2.8 dplyr编程 | 商业数据分析师-R 语言数据处理
…
任意个表达式，这种使用场景更多。

my_summarise <- function(.data, ...) {
  .data %>%
    group_by(...) %>%
    summarise(mass = mean(mass, na.rm = TRUE), height = mean(height, na.rm = TRUE))
}
starwars %>% my_summarise(homeworld)
#> # A tibble: 49 x 3
#>   homeworld       mass height
#>   <chr>          <dbl>  <dbl>
#> 1 Alderaan          64   176.
#> 2 Aleen Minor       15    79 
#> 3 Bespin            79   175 
#> 4 Bestine IV       110   180 
#> 5 Cato Neimoidia    90   191 
#> 6 Cerea             82   198 
#> # ... with 43 more rows
…
