2.6 列操作 | R 语言学习笔记
…
通过across()函数可以更简洁地重写上面代码：

df %>% 
  group_by(g1, g2) %>% 
  summarise(across(a:d, mean))

假设我们要将表格中多列向上取整?

dt <- tibble(a= rnorm(100,mean = 1),b=rnorm(100,mean = 1),d=rnorm(100,mean = 1))
dt %>% 
  mutate(across(a:d,ceiling))
#> # A tibble: 100 x 3
#>       a     b     d
#>   <dbl> <dbl> <dbl>
#> 1     1    -1     1
#> 2     2     2     3
#> 3     1     2     2
#> 4     0     2     2
#> 5     1     1     1
#> 6     2     1     1
#> # ... with 94 more rows
…
第二个参数，.fns是要应用于每一列的一个函数或函数列表。 也可以是purrr样式的公式（或公式列表），例如~ .x / 2。

starwars %>% 
  summarise(across(where(is.character), ~ length(unique(.x))))
#> # A tibble: 1 x 8
#>    name hair_color skin_color eye_color   sex gender homeworld species
#>   <int>      <int>      <int>     <int> <int>  <int>     <int>   <int>
#> 1    87         13         31        15     5      3        49      38

starwars %>% 
  group_by(species) %>% 
  filter(n() > 1) %>% 
  summarise(across(c(sex, gender, homeworld), ~ length(unique(.x))))
#> # A tibble: 9 x 4
#>   species    sex gender homeworld
#>   <chr>    <int>  <int>     <int>
#> 1 Droid        1      2         3
#> 2 Gungan       1      1         1
#> 3 Human        2      2        16
#> 4 Kaminoan     2      2         1
#> 5 Mirialan     1      1         1
#> 6 Twi'lek      2      2         1
#> # ... with 3 more rows

starwars %>% 
  group_by(homeworld) %>% 
  filter(n() > 1) %>% 
  summarise(across(where(is.numeric), ~ mean(.x, na.rm = TRUE)))
#> # A tibble: 10 x 4
#>   homeworld height  mass birth_year
#>   <chr>      <dbl> <dbl>      <dbl>
#> 1 Alderaan    176.  64         43  
#> 2 Corellia    175   78.5       25  
#> 3 Coruscant   174.  50         91  
#> 4 Kamino      208.  83.1       31.5
#> 5 Kashyyyk    231  124        200  
#> 6 Mirial      168   53.1       49  
#> # ... with 4 more rows
…
