1.1 readxl | R语言学习笔记
…
关于tbl_df类，可以查阅vignette("tibble")。

2.指定sheet读取

通过函数excel_sheets()查看Excel的sheet名称

excel_sheets(xlsx_example)
#> [1] "iris"     "mtcars"   "chickwts" "quakes"

当我们要读取Excel文件有多个sheets时，通过指定sheet参数,读取指定的sheet，sheet参数可以是sheet的名称或顺序号。

read_excel(xlsx_example, sheet = "chickwts")
#> # A tibble: 71 x 2
#>   weight feed     
#>    <dbl> <chr>    
#> 1    179 horsebean
#> 2    160 horsebean
#> 3    136 horsebean
#> 4    227 horsebean
#> 5    217 horsebean
#> 6    168 horsebean
#> # ... with 65 more rows
# not run
#read_excel(xlsx_example, sheet = 1)
#read_excel(xlsx_example, sheet = 3)

3.指定读取范围

读取Excel文件指定范围。read_excel()中range参数接受单元格范围，最简单的表示方式即Excle中单元格表示方法,如 range = “D12:F15” or range = “R1C12:R6C15”。

read_excel(xlsx_example, sheet = "iris")
#> # A tibble: 150 x 5
#>   Sepal.Length Sepal.Width Petal.Length Petal.Width Species
#>          <dbl>       <dbl>        <dbl>       <dbl> <chr>  
#> 1          5.1         3.5          1.4         0.2 setosa 
#> 2          4.9         3            1.4         0.2 setosa 
#> 3          4.7         3.2          1.3         0.2 setosa 
#> 4          4.6         3.1          1.5         0.2 setosa 
#> 5          5           3.6          1.4         0.2 setosa 
#> 6          5.4         3.9          1.7         0.4 setosa 
#> # ... with 144 more rows
…
