3.2 主要功能 | R语言学习笔记
…
方便观察，但是不方便统计分析，这是我们需要把数据做处理，从“宽数据变成长数据”即宽转长。

library(tidyr)
library(dplyr)
library(readr)

relig_income %>% 
  pivot_longer(cols = !religion,names_to = 'income',values_to = "count")
#> # A tibble: 180 x 3
#>   religion income  count
#>   <chr>    <chr>   <dbl>
#> 1 Agnostic <$10k      27
#> 2 Agnostic $10-20k    34
#> 3 Agnostic $20-30k    60
#> 4 Agnostic $30-40k    81
#> 5 Agnostic $40-50k    76
#> 6 Agnostic $50-75k   137
#> # ... with 174 more rows
…
names_to这个参数是新增的列名

values_to是新增的存储之前数据集中数据的列名

3.2.1.2 列名带数字

billboard %>% 
  pivot_longer(
    cols = starts_with("wk"), 
    names_to = "week", 
    values_to = "rank",
    values_drop_na = TRUE
  )
#> # A tibble: 5,307 x 5
#>   artist track                   date.entered week   rank
#>   <chr>  <chr>                   <date>       <chr> <dbl>
#> 1 2 Pac  Baby Don't Cry (Keep... 2000-02-26   wk1      87
#> 2 2 Pac  Baby Don't Cry (Keep... 2000-02-26   wk2      82
#> 3 2 Pac  Baby Don't Cry (Keep... 2000-02-26   wk3      72
#> 4 2 Pac  Baby Don't Cry (Keep... 2000-02-26   wk4      77
#> 5 2 Pac  Baby Don't Cry (Keep... 2000-02-26   wk5      87
#> 6 2 Pac  Baby Don't Cry (Keep... 2000-02-26   wk6      94
#> # ... with 5,301 more rows

names_prefix 调整内容前缀，配合names_transform参数使用

billboard %>% 
  pivot_longer(
    cols = starts_with("wk"), 
    names_to = "week", 
    names_prefix = "wk",
    names_transform = list(week = as.integer),
    values_to = "rank",
    values_drop_na = TRUE,
  )
#> # A tibble: 5,307 x 5
#>   artist track                   date.entered  week  rank
#>   <chr>  <chr>                   <date>       <int> <dbl>
#> 1 2 Pac  Baby Don't Cry (Keep... 2000-02-26       1    87
#> 2 2 Pac  Baby Don't Cry (Keep... 2000-02-26       2    82
#> 3 2 Pac  Baby Don't Cry (Keep... 2000-02-26       3    72
#> 4 2 Pac  Baby Don't Cry (Keep... 2000-02-26       4    77
#> 5 2 Pac  Baby Don't Cry (Keep... 2000-02-26       5    87
#> 6 2 Pac  Baby Don't Cry (Keep... 2000-02-26       6    94
#> # ... with 5,301 more rows
…
3.2.1.3 多变量列名

该案列设计比较复杂的正则表达式,new_?(.*)_(.)(.*)需要一定正则表达式基础。
new_?表示匹配new或new_，(.*)匹配任意0次或多次任意字符。

正则表达式介绍

who %>% pivot_longer(
  cols = new_sp_m014:newrel_f65,
  names_to = c("diagnosis", "gender", "age"), 
  names_pattern = "new_?(.*)_(.)(.*)",
  values_to = "count"
)
#> # A tibble: 405,440 x 8
#>   country     iso2  iso3   year diagnosis gender age   count
#>   <chr>       <chr> <chr> <int> <chr>     <chr>  <chr> <int>
#> 1 Afghanistan AF    AFG    1980 sp        m      014      NA
#> 2 Afghanistan AF    AFG    1980 sp        m      1524     NA
#> 3 Afghanistan AF    AFG    1980 sp        m      2534     NA
#> 4 Afghanistan AF    AFG    1980 sp        m      3544     NA
#> 5 Afghanistan AF    AFG    1980 sp        m      4554     NA
#> 6 Afghanistan AF    AFG    1980 sp        m      5564     NA
#> # ... with 405,434 more rows
…
who %>% pivot_longer(
  cols = new_sp_m014:newrel_f65,
  names_to = c("diagnosis", "gender", "age"), 
  names_pattern = "new_?(.*)_(.)(.*)",
  names_transform = list(
    gender = ~ readr::parse_factor(.x, levels = c("f", "m")),
    age = ~ readr::parse_factor(
      .x,
      levels = c("014", "1524", "2534", "3544", "4554", "5564", "65"), 
      ordered = TRUE
    )
  ),
  values_to = "count",
)
#> # A tibble: 405,440 x 8
#>   country     iso2  iso3   year diagnosis gender age   count
#>   <chr>       <chr> <chr> <int> <chr>     <fct>  <ord> <int>
#> 1 Afghanistan AF    AFG    1980 sp        m      014      NA
#> 2 Afghanistan AF    AFG    1980 sp        m      1524     NA
#> 3 Afghanistan AF    AFG    1980 sp        m      2534     NA
#> 4 Afghanistan AF    AFG    1980 sp        m      3544     NA
#> 5 Afghanistan AF    AFG    1980 sp        m      4554     NA
#> 6 Afghanistan AF    AFG    1980 sp        m      5564     NA
#> # ... with 405,434 more rows
…
family %>% 
  pivot_longer(
    !family, 
    names_to = c(".value", "child"), 
    names_sep = "_", 
    values_drop_na = TRUE
  )
#> # A tibble: 9 x 4
#>   family child  dob        gender
#>    <int> <chr>  <date>      <int>
#> 1      1 child1 1998-11-26      1
#> 2      1 child2 2000-01-29      2
#> 3      2 child1 1996-06-22      2
#> 4      3 child1 2002-07-11      2
#> 5      3 child2 2004-04-05      2
#> 6      4 child1 2004-10-10      1
#> # ... with 3 more rows

anscombe %>% 
  pivot_longer(everything(), 
    names_to = c(".value", "set"), 
    names_pattern = "(.)(.)"
  ) %>% 
  arrange(set)
#> # A tibble: 44 x 3
#>   set       x     y
#>   <chr> <dbl> <dbl>
#> 1 1        10  8.04
#> 2 1         8  6.95
#> 3 1        13  7.58
#> 4 1         9  8.81
#> 5 1        11  8.33
#> 6 1        14  9.96
#> # ... with 38 more rows
…
pnl %>% 
  pivot_longer(
    !c(x, a, b), 
    names_to = c(".value", "time"), 
    names_pattern = "(.)(.)"
  )
#> # A tibble: 8 x 6
#>       x     a     b time       y     z
#>   <int> <dbl> <dbl> <chr>  <dbl> <dbl>
#> 1     1     1     0 1     -1.40      3
#> 2     1     1     0 2      0.622    -2
#> 3     2     1     1 1      0.255     3
#> 4     2     1     1 2      1.15     -2
#> 5     3     0     1 1     -2.44      3
#> 6     3     0     1 2     -1.82     -2
#> # ... with 2 more rows

3.2.1.5 重复列名

df <- tibble(id = 1:3, y = 4:6, y = 5:7, y = 7:9, .name_repair = "minimal")
df %>% pivot_longer(!id, names_to = "name", values_to = "value")
#> # A tibble: 9 x 3
#>      id name  value
#>   <int> <chr> <int>
#> 1     1 y         4
#> 2     1 y         5
#> 3     1 y         7
#> 4     2 y         5
#> 5     2 y         6
#> 6     2 y         8
#> # ... with 3 more rows

3.2.2 长转宽

pivot_wider()功能与pivot_longer()相反。通过增加列数减少行数使数据集变得更宽，通常我们在汇总时候使用，达到类似Excel透视表结果。

3.2.2.1 基础

fish_encounters %>% pivot_wider(names_from = station, values_from = seen)
#> # A tibble: 19 x 12
#>   fish  Release I80_1 Lisbon  Rstr Base_TD   BCE   BCW  BCE2  BCW2   MAE   MAW
#>   <fct>   <int> <int>  <int> <int>   <int> <int> <int> <int> <int> <int> <int>
#> 1 4842        1     1      1     1       1     1     1     1     1     1     1
#> 2 4843        1     1      1     1       1     1     1     1     1     1     1
#> 3 4844        1     1      1     1       1     1     1     1     1     1     1
#> 4 4845        1     1      1     1       1    NA    NA    NA    NA    NA    NA
#> 5 4847        1     1      1    NA      NA    NA    NA    NA    NA    NA    NA
#> 6 4848        1     1      1     1      NA    NA    NA    NA    NA    NA    NA
#> # ... with 13 more rows

缺失值填充

fish_encounters %>% pivot_wider(
  names_from = station, 
  values_from = seen,
  values_fill = 0
)
#> # A tibble: 19 x 12
#>   fish  Release I80_1 Lisbon  Rstr Base_TD   BCE   BCW  BCE2  BCW2   MAE   MAW
#>   <fct>   <int> <int>  <int> <int>   <int> <int> <int> <int> <int> <int> <int>
#> 1 4842        1     1      1     1       1     1     1     1     1     1     1
#> 2 4843        1     1      1     1       1     1     1     1     1     1     1
#> 3 4844        1     1      1     1       1     1     1     1     1     1     1
#> 4 4845        1     1      1     1       1     0     0     0     0     0     0
#> 5 4847        1     1      1     0       0     0     0     0     0     0     0
#> 6 4848        1     1      1     1       0     0     0     0     0     0     0
#> # ... with 13 more rows
…
3.2.2.3 从多个变量生成新列名

production <- expand_grid(
    product = c("A", "B"), 
    country = c("AI", "EI"), 
    year = 2000:2014
  ) %>%
  filter((product == "A" & country == "AI") | product == "B") %>% 
  mutate(production = rnorm(nrow(.)))
production
#> # A tibble: 45 x 4
#>   product country  year production
#>   <chr>   <chr>   <int>      <dbl>
#> 1 A       AI       2000     -0.244
#> 2 A       AI       2001     -0.283
#> 3 A       AI       2002     -0.554
#> 4 A       AI       2003      0.629
#> 5 A       AI       2004      2.07 
#> 6 A       AI       2005     -1.63 
#> # ... with 39 more rows

production %>% pivot_wider(
  names_from = c(product, country), 
  values_from = production
)
#> # A tibble: 15 x 4
#>    year   A_AI    B_AI    B_EI
#>   <int>  <dbl>   <dbl>   <dbl>
#> 1  2000 -0.244  0.738  -0.313 
#> 2  2001 -0.283  1.89    1.07  
#> 3  2002 -0.554 -0.0974  0.0700
#> 4  2003  0.629 -0.936  -0.639 
#> 5  2004  2.07  -0.0160 -0.0500
#> 6  2005 -1.63  -0.827  -0.251 
#> # ... with 9 more rows

通过names_sep和names_prefix参数控制新的列名，或通过names_glue

production %>% pivot_wider(
  names_from = c(product, country), 
  values_from = production,
  names_sep = ".",
  names_prefix = "prod."
)
#> # A tibble: 15 x 4
#>    year prod.A.AI prod.B.AI prod.B.EI
#>   <int>     <dbl>     <dbl>     <dbl>
#> 1  2000    -0.244    0.738    -0.313 
#> 2  2001    -0.283    1.89      1.07  
#> 3  2002    -0.554   -0.0974    0.0700
#> 4  2003     0.629   -0.936    -0.639 
#> 5  2004     2.07    -0.0160   -0.0500
#> 6  2005    -1.63    -0.827    -0.251 
#> # ... with 9 more rows

production %>% pivot_wider(
  names_from = c(product, country), 
  values_from = production,
  names_glue = "prod_{product}_{country}"
)
#> # A tibble: 15 x 4
#>    year prod_A_AI prod_B_AI prod_B_EI
#>   <int>     <dbl>     <dbl>     <dbl>
#> 1  2000    -0.244    0.738    -0.313 
#> 2  2001    -0.283    1.89      1.07  
#> 3  2002    -0.554   -0.0974    0.0700
#> 4  2003     0.629   -0.936    -0.639 
#> 5  2004     2.07    -0.0160   -0.0500
#> 6  2005    -1.63    -0.827    -0.251 
#> # ... with 9 more rows

3.2.2.4 多值变宽

us_rent_income %>% 
  pivot_wider(names_from = variable, values_from = c(estimate, moe))
#> # A tibble: 52 x 6
#>   GEOID NAME       estimate_income estimate_rent moe_income moe_rent
#>   <chr> <chr>                <dbl>         <dbl>      <dbl>    <dbl>
#> 1 01    Alabama              24476           747        136        3
#> 2 02    Alaska               32940          1200        508       13
#> 3 04    Arizona              27517           972        148        4
#> 4 05    Arkansas             23789           709        165        5
#> 5 06    California           29454          1358        109        3
#> 6 08    Colorado             32401          1125        109        5
#> # ... with 46 more rows
…
